{
    "name": "Pixeltheory.Base.Editor.Tests",
    "references": [
        "GUID:27619889b8ba8c24980f49ee34dbb44a",
        "GUID:0acc523941302664db1f4e527237feb3",
        "GUID:00135f5d3cf7444b5972cb0fb650fa9d",
        "GUID:16eea3414a0614cc895a8b9cb73f8b79"
    ],
    "includePlatforms": [
        "Editor"
    ],
    "excludePlatforms": [],
    "allowUnsafeCode": false,
    "overrideReferences": true,
    "precompiledReferences": [
        "nunit.framework.dll"
    ],
    "autoReferenced": false,
    "defineConstraints": [
        "UNITY_INCLUDE_TESTS"
    ],
    "versionDefines": [],
    "noEngineReferences": false
}